{
  "trips": [
    {
      "name": "Wonderful France -  2014",
      "description": "The best of both worlds, France's capital Paris meets its capital of cool, St-Tropez, on this chic retreat. Even the journey shows you two ...",
      "url": "/uk/tours/wonderful-france/summer-2014",
      "image": "//content.trafalgar.com/~/media/images/home/destinations/europe-and-britain/france/france-tours-les-baux-de-provence-village-castle-r.jpg?mw=320&",
      "imageMobile": "//content.trafalgar.com/~/media/images/home/destinations/europe-and-britain/france/france-tours-les-baux-de-provence-village-castle-l.jpg?mw=500&",
      "duration": 9,
      "price": "£1825",
      "rating": 5
    },
    {
      "name": "Highlights of France -  2014",
      "description": "We take you beyond sophisticated Paris to the south coast and more! Find examples of France's Roman history and walk through walled medieval ...",
      "url": "/uk/tours/highlights-of-france/summer-2014",
      "image": "//content.trafalgar.com/~/media/images/home/destinations/europe-and-britain/france/france-tours-chateau-dambroise-r.jpg?mw=320&",
      "imageMobile": "//content.trafalgar.com/~/media/images/home/destinations/europe-and-britain/france/france-tours-chateau-dambroise-l.jpg?mw=500&",
      "duration": 13,
      "price": "",
      "rating": 5
    },
    {
      "name": "Wonderful France - Winter 2014 2015",
      "description": "The best of both worlds, France‘s capital Paris meets its capital of cool, St-Tropez, on this chic retreat. Even the journey shows you two ...",
      "url": "/uk/tours/wonderful-france/winter-2014-2015",
      "image": "//content.trafalgar.com/~/media/images/home/destinations/europe-and-britain/monaco/monaco-tours-rock-coastal-scape-r.jpg?mw=320&",
      "imageMobile": "//content.trafalgar.com/~/media/images/home/destinations/europe-and-britain/monaco/monaco-tours-rock-coastal-scape-l.jpg?mw=500&",
      "duration": 9,
      "price": "£1401",
      "rating": 5
    },
    {
      "name": "Highlights of France and Barcelona - Winter 2014 2015",
      "description": "This twin-country trip follows the spine of France's wine country and the foothills of the Pyrénées, before heading to buzzing Barcelona. ...",
      "url": "/uk/tours/highlights-of-france-and-barcelona/winter-2014-2015",
      "image": "//content.trafalgar.com/~/media/images/home/destinations/europe-and-britain/france/france-tours-monaco-and-monte-carlo-r.jpg?mw=320&",
      "imageMobile": "//content.trafalgar.com/~/media/images/home/destinations/europe-and-britain/france/france-tours-monaco-and-monte-carlo-l.jpg?mw=500&",
      "duration": 10,
      "price": "£1458",
      "rating": 5
    },
    {
      "name": "The Treasures of France -  2014",
      "description": "Criss-crossing the north, this trip fuses fairytale châteaux and vineyards in the rich Loire Valley with the chicness of Paris and the ...",
      "url": "/uk/tours/the-treasures-of-france/summer-2014",
      "image": "//content.trafalgar.com/~/media/images/home/destinations/europe-and-britain/france/france-tours-castle-of-chambord-r.jpg?mw=320&",
      "imageMobile": "//content.trafalgar.com/~/media/images/home/destinations/europe-and-britain/france/france-tours-castle-of-chambord-l.jpg?mw=500&",
      "duration": 8,
      "price": "£1575",
      "rating": 5
    },
    {
      "name": "Best of France -  2014",
      "description": "It's insider moments like&hellip;.standing in the musty cellars beneath Beaune as you taste classic Burgundy wines &ndash; perhaps the ...",
      "url": "/uk/tours/best-of-france/summer-2014",
      "image": "//content.trafalgar.com/~/media/images/home/destinations/europe-and-britain/france/france-tours-avignon-pont-saint-benezet-r.jpg?mw=320&",
      "imageMobile": "//content.trafalgar.com/~/media/images/home/destinations/europe-and-britain/france/france-tours-avignon-pont-saint-benezet-l.jpg?mw=500&",
      "duration": 13,
      "price": "£2450",
      "rating": 5
    },
    {
      "name": "Paris Week Superior -  2014",
      "description": "In France’s glittering capital city, you’ll see the Eiffel Tower, cruise River Seine, visit a French perfumery, tour the Palace of ...",
      "url": "/uk/tours/paris-week-superior/summer-2014",
      "image": "//content.trafalgar.com/~/media/images/home/destinations/europe-and-britain/france/france-tours-claude-monets-house-r.jpg?mw=320&",
      "imageMobile": "//content.trafalgar.com/~/media/images/home/destinations/europe-and-britain/france/france-tours-claude-monets-house-l.jpg?mw=500&",
      "duration": 8,
      "price": "£1165",
      "rating": 5
    },
    {
      "name": "London Paris and Rome Superior -  2014",
      "description": "England, France and Italy's popular and beloved capitals await you! See Big Ben, ascend the Eiffel Tower, visit a French perfumery and ...",
      "url": "/uk/tours/london-paris-and-rome-superior/summer-2014",
      "image": "//content.trafalgar.com/~/media/images/home/destinations/europe-and-britain/england/england-tours-london-westminster-2-r.jpg?mw=320&",
      "imageMobile": "//content.trafalgar.com/~/media/images/home/destinations/europe-and-britain/england/england-tours-london-westminster-2-l.jpg?mw=500&",
      "duration": 10,
      "price": "£1699",
      "rating": 5
    },
    {
      "name": "Winter in Paris Moderate - Winter 2014 2015",
      "description": "Enchanting, inspiring, dazzling - Paris at Christmas is all these things and more! Your glittering city tour includes the Arc de Triomphe, ...",
      "url": "/uk/tours/winter-in-paris-moderate/winter-2014-2015",
      "image": "//content.trafalgar.com/~/media/images/home/destinations/europe-and-britain/france/france-tours-versailles-palace-gardens-r.jpg?mw=320&",
      "imageMobile": "//content.trafalgar.com/~/media/images/home/destinations/europe-and-britain/france/france-tours-versailles-palace-gardens-l.jpg?mw=500&",
      "duration": 8,
      "price": "£650",
      "rating": 5
    },
    {
      "name": "Winter in Paris Superior - Winter 2014 2015",
      "description": "Enchanting, inspiring, dazzling - Paris at Christmas is all these things and more! Your glittering city tour includes the Arc de Triomphe, ...",
      "url": "/uk/tours/winter-in-paris-superior/winter-2014-2015",
      "image": "//content.trafalgar.com/~/media/images/home/destinations/europe-and-britain/france/france-tours-paris-notre-dame-2-r.jpg?mw=320&",
      "imageMobile": "//content.trafalgar.com/~/media/images/home/destinations/europe-and-britain/france/france-tours-paris-notre-dame-2-l.jpg?mw=500&",
      "duration": 8,
      "price": "£725",
      "rating": 5
    }
  ]
}